[
  {
    "path": "./docs/arkivoversikt/tidligere-arkivplaner/",
    "title": "Tidligere arkivplaner",
    "grade": 11.8,
    "age": 18.5,
    "timeToRead": 0.31,
    "pages": 0.27,
    "paragraphs": 5,
    "sentences": 9,
    "words": 103
  },
  {
    "path": "./docs/arkivoversikt/",
    "title": "Arkivoversikt",
    "grade": 14,
    "age": 20.75,
    "timeToRead": 0.32,
    "pages": 0.29,
    "paragraphs": 2,
    "sentences": 8,
    "words": 107
  },
  {
    "path": "./docs/arkivoversikt/elektroniske-systemer/",
    "title": "Elektroniske systemer",
    "grade": 18,
    "age": 25.5,
    "timeToRead": 0.33,
    "pages": 0.29,
    "paragraphs": 8,
    "sentences": 8,
    "words": 109
  },
  {
    "path": "./docs/arkivoversikt/arkivserier-og-perioder/",
    "title": "Arkivserier og -perioder",
    "grade": 15.2,
    "age": 22.5,
    "timeToRead": 1.5,
    "pages": 0.58,
    "paragraphs": 17,
    "sentences": 19,
    "words": 216
  },
  {
    "path": "./docs/arkivoversikt/deponert-arkiv/",
    "title": "Deponert arkiv",
    "grade": 12.6,
    "age": 19.5,
    "timeToRead": 1.21,
    "pages": 0.72,
    "paragraphs": 18,
    "sentences": 28,
    "words": 269
  },
  {
    "path": "./docs/arkivoversikt/arkivnoekler/",
    "title": "Arkivnøkler",
    "grade": 11.8,
    "age": 18.75,
    "timeToRead": 1.26,
    "pages": 0.77,
    "paragraphs": 27,
    "sentences": 32,
    "words": 288
  },
  {
    "path": "./docs/automatisering/",
    "title": "Automatisering",
    "grade": 14.8,
    "age": 21.5,
    "timeToRead": 0.28,
    "pages": 0.25,
    "paragraphs": 2,
    "sentences": 5,
    "words": 92
  },
  {
    "path": "./docs/automatisering/arkivplanen/",
    "title": "Arkivplanen",
    "grade": 12.8,
    "age": 19.5,
    "timeToRead": 2.6,
    "pages": 1.12,
    "paragraphs": 26,
    "sentences": 34,
    "words": 421
  },
  {
    "path": "./docs/arkivoversikt/avlevert-arkiv/",
    "title": "Avlevert arkiv",
    "grade": 13.6,
    "age": 21.25,
    "timeToRead": 1.6,
    "pages": 1.06,
    "paragraphs": 56,
    "sentences": 59,
    "words": 399
  },
  {
    "path": "./docs/automatisering/arkivplanen/tekniske-krav/",
    "title": "Tekniske krav",
    "grade": 11.4,
    "age": 18.25,
    "timeToRead": 1.31,
    "pages": 0.81,
    "paragraphs": 12,
    "sentences": 25,
    "words": 304
  },
  {
    "path": "./docs/organisering-og-ansvar/",
    "title": "Organisering og ansvar",
    "grade": 13.8,
    "age": 21.25,
    "timeToRead": 0.1,
    "pages": 0.09,
    "paragraphs": 1,
    "sentences": 4,
    "words": 33
  },
  {
    "path": "./docs/automatisering/integrasjoner/",
    "title": "Integrasjoner",
    "grade": 13.2,
    "age": 20,
    "timeToRead": 0.56,
    "pages": 0.5,
    "paragraphs": 9,
    "sentences": 14,
    "words": 187
  },
  {
    "path": "./docs/automatisering/arkivplanen/steg-for-steg/",
    "title": "Steg for steg",
    "grade": 11.6,
    "age": 18.5,
    "timeToRead": 1.59,
    "pages": 1.06,
    "paragraphs": 23,
    "sentences": 36,
    "words": 396
  },
  {
    "path": "./docs/automatisering/robotisering/",
    "title": "Robotisering",
    "grade": 13.2,
    "age": 20,
    "timeToRead": 0.58,
    "pages": 0.51,
    "paragraphs": 14,
    "sentences": 18,
    "words": 192
  },
  {
    "path": "./docs/automatisering/fellesloesninger/",
    "title": "Fellesløsninger",
    "grade": 13.8,
    "age": 20.75,
    "timeToRead": 2.2,
    "pages": 1.09,
    "paragraphs": 17,
    "sentences": 32,
    "words": 408
  },
  {
    "path": "./docs/organisering-og-ansvar/om-ntnu/",
    "title": "Om NTNU",
    "grade": 15.6,
    "age": 22.75,
    "timeToRead": 0.2,
    "pages": 0.18,
    "paragraphs": 4,
    "sentences": 5,
    "words": 68
  },
  {
    "path": "./docs/prosjekt/ntnu-sak/rydding-og-dokumentfangst/",
    "title": "Rydding og dokumentfangst",
    "grade": 9.8,
    "age": 17,
    "timeToRead": 0.13,
    "pages": 0.11,
    "paragraphs": 8,
    "sentences": 9,
    "words": 42
  },
  {
    "path": "./docs/regelverk/",
    "title": "Regelverk",
    "grade": 16.2,
    "age": 23.5,
    "timeToRead": 0.9,
    "pages": 0.08,
    "paragraphs": 1,
    "sentences": 2,
    "words": 31
  },
  {
    "path": "./docs/arkivoversikt/fjernarkiv/",
    "title": "Fjernarkiv",
    "grade": 12,
    "age": 18.75,
    "timeToRead": 3.6,
    "pages": 1.65,
    "paragraphs": 45,
    "sentences": 53,
    "words": 620
  },
  {
    "path": "./docs/arkivoversikt/arkivserier-og-perioder/elektroniske-arkivserier-og-perioder/",
    "title": "Elektroniske arkivserier og -perioder",
    "grade": 12.6,
    "age": 20.25,
    "timeToRead": 3.25,
    "pages": 1.82,
    "paragraphs": 166,
    "sentences": 174,
    "words": 684
  },
  {
    "path": "./docs/organisering-og-ansvar/avdeling-for-dokumentasjonsforvaltning/",
    "title": "Avdeling for dokumentasjonsforvaltning",
    "grade": 15.6,
    "age": 22.75,
    "timeToRead": 1.45,
    "pages": 0.93,
    "paragraphs": 24,
    "sentences": 28,
    "words": 350
  },
  {
    "path": "./docs/rutiner/beredskap-og-sikkerhet-i-tilknytning-til-arkiv/",
    "title": "Beredskap og sikkerhet i tilknytning til arkiv",
    "grade": 13.2,
    "age": 20.25,
    "timeToRead": 1.17,
    "pages": 0.69,
    "paragraphs": 13,
    "sentences": 24,
    "words": 257
  },
  {
    "path": "./docs/regelverk/lov-forskrift-regelverk-overordnet/",
    "title": "Lov, forskrift, regelverk - overordnet",
    "grade": 16,
    "age": 24,
    "timeToRead": 1.52,
    "pages": 0.99,
    "paragraphs": 56,
    "sentences": 59,
    "words": 373
  },
  {
    "path": "./docs/rutiner/",
    "title": "Rutiner",
    "grade": 19.4,
    "age": 27,
    "timeToRead": 0.25,
    "pages": 0.22,
    "paragraphs": 3,
    "sentences": 5,
    "words": 84
  },
  {
    "path": "./docs/organisering-og-ansvar/ansvar-og-fullmakter/",
    "title": "Ansvar og fullmakter",
    "grade": 13,
    "age": 20,
    "timeToRead": 3.43,
    "pages": 1.98,
    "paragraphs": 66,
    "sentences": 83,
    "words": 743
  },
  {
    "path": "./docs/prosjekt/ntnu-sak/",
    "title": "NTNU Sak",
    "grade": 13.4,
    "age": 20.75,
    "timeToRead": 3.13,
    "pages": 1.71,
    "paragraphs": 71,
    "sentences": 80,
    "words": 643
  },
  {
    "path": "./docs/automatisering/arkivplanen/produksjon-av-innhold/",
    "title": "Produksjon av innhold",
    "grade": 11,
    "age": 17.75,
    "timeToRead": 5.58,
    "pages": 3.18,
    "paragraphs": 124,
    "sentences": 138,
    "words": 1192
  },
  {
    "path": "./docs/rutiner/saksbehandling-og-arkivering/ferdigstille-dokumenter/",
    "title": "Ferdigstille dokumenter",
    "grade": 10,
    "age": 16.5,
    "timeToRead": 0.57,
    "pages": 0.51,
    "paragraphs": 16,
    "sentences": 19,
    "words": 191
  },
  {
    "path": "./docs/rutiner/registrering/",
    "title": "Registrering",
    "grade": 11.4,
    "age": 18.75,
    "timeToRead": 1.21,
    "pages": 0.72,
    "paragraphs": 45,
    "sentences": 50,
    "words": 269
  },
  {
    "path": "./docs/rutiner/saksbehandling-og-arkivering/behandle-og-avskrive-mottatte-dokumenter/",
    "title": "Behandle og avskrive mottatte dokumenter",
    "grade": 11.2,
    "age": 17.75,
    "timeToRead": 1.26,
    "pages": 0.77,
    "paragraphs": 19,
    "sentences": 23,
    "words": 288
  },
  {
    "path": "./docs/regelverk/lov-forskrift-regelverk-fagomraader/",
    "title": "Lov, forskrift, regelverk - fagområder",
    "grade": 13,
    "age": 20.5,
    "timeToRead": 4.4,
    "pages": 2.17,
    "paragraphs": 134,
    "sentences": 147,
    "words": 814
  },
  {
    "path": "./docs/rutiner/saksbehandling-og-arkivering/formkrav-ved-klagesaker/",
    "title": "Formkrav ved klagesaker",
    "grade": 11.2,
    "age": 17.5,
    "timeToRead": 1.13,
    "pages": 0.65,
    "paragraphs": 6,
    "sentences": 11,
    "words": 242
  },
  {
    "path": "./docs/rutiner/saksbehandling-og-arkivering/",
    "title": "Saksbehandling og arkivering",
    "grade": 13.8,
    "age": 20.75,
    "timeToRead": 0.58,
    "pages": 0.51,
    "paragraphs": 14,
    "sentences": 15,
    "words": 192
  },
  {
    "path": "./docs/rutiner/saksbehandling-og-arkivering/opprette-nye-dokumenter/",
    "title": "Opprette nye dokumenter",
    "grade": 14.6,
    "age": 21,
    "timeToRead": 0.35,
    "pages": 0.31,
    "paragraphs": 2,
    "sentences": 5,
    "words": 116
  },
  {
    "path": "./docs/rutiner/saksbehandling-og-arkivering/intern-korrespondanse/",
    "title": "Intern korrespondanse",
    "grade": 12.6,
    "age": 19.5,
    "timeToRead": 0.58,
    "pages": 0.52,
    "paragraphs": 12,
    "sentences": 17,
    "words": 195
  },
  {
    "path": "./docs/rutiner/saksbehandling-og-arkivering/personopplysninger/",
    "title": "Personopplysninger",
    "grade": 17.8,
    "age": 25,
    "timeToRead": 0.56,
    "pages": 0.5,
    "paragraphs": 5,
    "sentences": 9,
    "words": 186
  },
  {
    "path": "./docs/regelverk/bevaring-og-kassasjon/",
    "title": "Bevaring og kassasjon",
    "grade": 14.2,
    "age": 21,
    "timeToRead": 5.23,
    "pages": 2.87,
    "paragraphs": 55,
    "sentences": 72,
    "words": 1077
  },
  {
    "path": "./docs/rutiner/saksbehandling-og-arkivering/godkjenne-dokumenter/",
    "title": "Godkjenne dokumenter",
    "grade": 13.8,
    "age": 20.25,
    "timeToRead": 1.41,
    "pages": 0.89,
    "paragraphs": 9,
    "sentences": 20,
    "words": 335
  },
  {
    "path": "./docs/rutiner/saksbehandling-og-arkivering/skriveregler-standardtitler-og-maler/",
    "title": "Skriveregler, standardtitler og maler",
    "grade": 13.8,
    "age": 20.5,
    "timeToRead": 0.58,
    "pages": 0.52,
    "paragraphs": 6,
    "sentences": 12,
    "words": 194
  },
  {
    "path": "./docs/rutiner/saksbehandling-og-arkivering/skygge-eller-kopiarkiv/",
    "title": "Skygge- eller kopiarkiv ",
    "grade": 15,
    "age": 21.75,
    "timeToRead": 0.51,
    "pages": 0.46,
    "paragraphs": 4,
    "sentences": 9,
    "words": 171
  },
  {
    "path": "./docs/rutiner/saksbehandling-og-arkivering/taushetsplikt/",
    "title": "Taushetsplikt",
    "grade": 17.2,
    "age": 24.25,
    "timeToRead": 1.5,
    "pages": 0.58,
    "paragraphs": 7,
    "sentences": 8,
    "words": 218
  },
  {
    "path": "./docs/rutiner/saksbehandling-og-arkivering/vurder-offentlighet/",
    "title": "Vurder offentlighet",
    "grade": 12.2,
    "age": 19.25,
    "timeToRead": 1.4,
    "pages": 0.57,
    "paragraphs": 18,
    "sentences": 24,
    "words": 213
  },
  {
    "path": "./docs/rutiner/saksomraader/",
    "title": "Saksområder",
    "grade": 11.2,
    "age": null,
    "timeToRead": 0.3,
    "pages": 0.02,
    "paragraphs": 1,
    "sentences": 1,
    "words": 9
  },
  {
    "path": "./docs/rutiner/saksomraader/innkjoep-og-anskaffelse/",
    "title": "Innkjøp og anskaffelse",
    "grade": 13.8,
    "age": null,
    "timeToRead": 0.8,
    "pages": 0.07,
    "paragraphs": 4,
    "sentences": 5,
    "words": 28
  },
  {
    "path": "./docs/organisering-og-ansvar/organisering/",
    "title": "Organisering",
    "grade": 14,
    "age": 21.25,
    "timeToRead": 7.2,
    "pages": 3.75,
    "paragraphs": 85,
    "sentences": 141,
    "words": 1408
  },
  {
    "path": "./docs/organisering-og-ansvar/historikk/",
    "title": "Historikk",
    "grade": 14,
    "age": 21.25,
    "timeToRead": 7.31,
    "pages": 4.01,
    "paragraphs": 93,
    "sentences": 139,
    "words": 1503
  },
  {
    "path": "./docs/rutiner/saksbehandling-og-arkivering/sende-dokumenter/",
    "title": "Sende dokumenter",
    "grade": 11.6,
    "age": 18.25,
    "timeToRead": 2.8,
    "pages": 1.14,
    "paragraphs": 22,
    "sentences": 30,
    "words": 428
  },
  {
    "path": "./docs/rutiner/dokumentasjonsforvaltning/",
    "title": "Dokumentasjonsforvaltning",
    "grade": 13,
    "age": 19.75,
    "timeToRead": 6.1,
    "pages": 3.29,
    "paragraphs": 68,
    "sentences": 90,
    "words": 1232
  },
  {
    "path": "./docs/rutiner/saksomraader/ansettelsessaker/",
    "title": "Ansettelsessaker",
    "grade": 13.6,
    "age": 21,
    "timeToRead": 1.32,
    "pages": 0.81,
    "paragraphs": 35,
    "sentences": 42,
    "words": 305
  },
  {
    "path": "./docs/rutiner/saksomraader/student/",
    "title": "Studentdokumentasjon",
    "grade": 11.4,
    "age": 18.5,
    "timeToRead": 0.25,
    "pages": 0.22,
    "paragraphs": 14,
    "sentences": 15,
    "words": 82
  },
  {
    "path": "./docs/rutiner/saksomraader/phd/",
    "title": "Ph.d.-dokumentasjon",
    "grade": 13,
    "age": 20.25,
    "timeToRead": 0.57,
    "pages": 0.51,
    "paragraphs": 20,
    "sentences": 24,
    "words": 190
  },
  {
    "path": "./docs/rutiner/saksomraader/hoeringer/",
    "title": "Høringer",
    "grade": 12.8,
    "age": 19.75,
    "timeToRead": 1.39,
    "pages": 0.88,
    "paragraphs": 10,
    "sentences": 29,
    "words": 329
  },
  {
    "path": "./docs/rutiner/innsyn/",
    "title": "Innsyn",
    "grade": 11.8,
    "age": 18.5,
    "timeToRead": 5.15,
    "pages": 2.8,
    "paragraphs": 58,
    "sentences": 84,
    "words": 1050
  },
  {
    "path": "./docs/rutiner/saksomraader/prosjekter/",
    "title": "Ekstern- og internfinansierte prosjekter",
    "grade": 13.8,
    "age": 21.5,
    "timeToRead": 0.57,
    "pages": 0.5,
    "paragraphs": 28,
    "sentences": 34,
    "words": 189
  },
  {
    "path": "./docs/rutiner/saksomraader/rektorvedtak/",
    "title": "Rektorvedtak",
    "grade": 11.8,
    "age": 19,
    "timeToRead": 0.51,
    "pages": 0.45,
    "paragraphs": 21,
    "sentences": 26,
    "words": 170
  },
  {
    "path": "./docs/rutiner/saksomraader/studentombud/",
    "title": "Studentombud",
    "grade": 13,
    "age": 19.75,
    "timeToRead": 0.25,
    "pages": 0.22,
    "paragraphs": 3,
    "sentences": 6,
    "words": 83
  },
  {
    "path": "./docs/rutiner/saksdokumenter/",
    "title": "Saksdokumenter",
    "grade": 13.6,
    "age": 20.5,
    "timeToRead": 2.6,
    "pages": 1.12,
    "paragraphs": 20,
    "sentences": 35,
    "words": 420
  },
  {
    "path": "./docs/rutiner/veiledninger-og-brukerdokumentasjon/",
    "title": "Veiledninger og brukerdokumentasjon",
    "grade": 16.2,
    "age": 23.5,
    "timeToRead": 0.12,
    "pages": 0.11,
    "paragraphs": 3,
    "sentences": 3,
    "words": 41
  },
  {
    "path": "./docs/rutiner/saksomraader/styre-raad-og-utvalg/",
    "title": "Styre, råd og utvalg",
    "grade": 9.2,
    "age": 16,
    "timeToRead": 0.31,
    "pages": 0.28,
    "paragraphs": 14,
    "sentences": 17,
    "words": 104
  },
  {
    "path": "./docs/rutiner/sjekkliste-for-saksbehandlere/",
    "title": "Sjekkliste for saksbehandlere",
    "grade": 9,
    "age": 15.75,
    "timeToRead": 0.36,
    "pages": 0.32,
    "paragraphs": 19,
    "sentences": 19,
    "words": 119
  },
  {
    "path": "./docs/rutiner/saksomraader/personal/",
    "title": "Personaldokumentasjon",
    "grade": 14,
    "age": 21.25,
    "timeToRead": 2.8,
    "pages": 1.14,
    "paragraphs": 32,
    "sentences": 45,
    "words": 426
  },
  {
    "path": "./docs/regelverk/bevaring-og-kassasjon/bevarings-og-kassasjonsplan-for-uh-sektoren/",
    "title": "Bevarings- og kassasjonsplan for universiteter, vitenskapelige høgskoler og ikke-etatsinterne statlige høgskoler i Norge",
    "grade": 16.2,
    "age": 23.5,
    "timeToRead": 9.48,
    "pages": 5.23,
    "paragraphs": 107,
    "sentences": 144,
    "words": 1961
  },
  {
    "path": "./docs/rutiner/systemadministrasjon/",
    "title": "Systemadministrasjon",
    "grade": 13.2,
    "age": 20.25,
    "timeToRead": 5.5,
    "pages": 3.11,
    "paragraphs": 69,
    "sentences": 112,
    "words": 1167
  },
  {
    "path": "./docs/rutiner/saksomraader/studie-og-eksamen/",
    "title": "Studie- og eksamensdokumentasjon",
    "grade": 12.6,
    "age": 19.5,
    "timeToRead": 6.18,
    "pages": 3.36,
    "paragraphs": 72,
    "sentences": 121,
    "words": 1259
  }
]