[
  {
    "id": "/0",
    "text": "Laboris enim incididunt laboris veniam. Sint qui ea reprehenderit duis ex ea mollit. Amet exercitation ipsum consectetur officia sunt incididunt ad sint exercitation. Eu adipisicing quis tempor cupidatat adipisicing nostrud quis mollit excepteur. Incididunt non enim sint in pariatur. Deserunt laborum duis exercitation dolore in pariatur aute ea id laborum sunt occaecat dolore.\r\n"
  },
  {
    "id": "/1",
    "text": "Ea nulla id qui aliquip eiusmod eu sunt qui sit sit pariatur tempor eu. Fugiat nisi ipsum non proident minim cillum amet labore deserunt nulla aliquip ut deserunt magna. Sint commodo sunt cupidatat ea aute.\r\n"
  },
  {
    "id": "/2",
    "text": "Voluptate consequat et velit amet ipsum culpa sint sunt occaecat proident voluptate qui reprehenderit Lorem. Occaecat eu quis adipisicing cillum sit. Irure veniam irure fugiat enim quis eiusmod voluptate Lorem consectetur. Duis exercitation eiusmod reprehenderit dolore quis enim consequat occaecat quis veniam.\r\n"
  },
  {
    "id": "/3",
    "text": "Tempor aliqua consectetur eiusmod esse. Minim laborum ea veniam sunt mollit. Et consequat do commodo ex nisi adipisicing excepteur et cillum tempor. Aute reprehenderit eiusmod tempor elit cillum labore. Laboris sunt cupidatat quis quis ut laborum consequat nostrud eiusmod. Et magna in do incididunt.\r\n"
  },
  {
    "id": "/4",
    "text": "Dolore occaecat nostrud eiusmod laboris dolor est deserunt. Aliqua nulla irure deserunt reprehenderit nostrud amet esse minim occaecat pariatur consectetur labore sit. Labore labore incididunt sit pariatur adipisicing incididunt dolor. Minim et mollit et laboris incididunt reprehenderit dolore quis eiusmod id non. Sit officia dolor sit dolore mollit voluptate eiusmod ipsum. Id et occaecat excepteur laborum. Et eu Lorem aute consequat aliquip quis Lorem esse quis magna exercitation non sunt ex.\r\n"
  },
  {
    "id": "/5",
    "text": "Commodo ipsum minim enim qui. Eu laboris irure pariatur elit nulla qui sint pariatur ad officia voluptate et. Occaecat aliqua enim magna tempor velit voluptate ut aute ut ullamco adipisicing. Culpa velit ullamco in nostrud. Irure sunt eiusmod minim amet anim laboris est. Qui mollit ut velit dolore fugiat culpa labore nostrud qui est incididunt.\r\n"
  },
  {
    "id": "/6",
    "text": "Tempor dolor consequat ea sit eiusmod esse esse consequat ad ipsum nisi ex eiusmod ex. Deserunt excepteur dolor duis esse laborum elit dolore minim excepteur consequat labore dolore cupidatat. Aute nisi eiusmod deserunt eiusmod commodo laborum pariatur dolor officia est anim dolore exercitation. Pariatur reprehenderit amet esse non. Officia est minim culpa sunt laboris amet commodo irure fugiat et duis aliqua commodo. Irure veniam proident occaecat in cillum ea nisi proident culpa.\r\n"
  },
  {
    "id": "/7",
    "text": "Voluptate veniam nostrud aliquip mollit cillum id cupidatat. Velit culpa dolor cupidatat velit elit amet elit aliquip sunt ipsum. Id ad sit velit do minim quis do laboris laboris ex duis. Adipisicing pariatur eiusmod est sint id magna veniam labore commodo nostrud nisi pariatur laboris id. Non laborum aliquip reprehenderit ea exercitation do et eu incididunt adipisicing quis. Anim magna esse ipsum Lorem ut culpa ut dolor sit id sunt.\r\n"
  },
  {
    "id": "/8",
    "text": "Deserunt cupidatat amet id id in ex consequat dolor fugiat pariatur eu esse. Amet incididunt proident velit deserunt ea dolor deserunt duis ipsum ipsum ullamco amet eu irure. Consequat sit consectetur officia amet cillum ad dolor elit aliquip duis velit enim. Proident reprehenderit reprehenderit laboris ea incididunt exercitation nostrud sunt ipsum exercitation consectetur cillum.\r\n"
  },
  {
    "id": "/9",
    "text": "Ullamco mollit exercitation exercitation irure aliqua nulla laborum quis commodo ad. Amet in aute ullamco labore consequat deserunt sint. Consequat consectetur occaecat adipisicing aliqua ut cillum amet adipisicing tempor minim cillum et non.\r\n"
  },
  {
    "id": "/10",
    "text": "Commodo duis ex duis in non laboris. In ea aliquip laborum minim aliquip nulla laborum irure aute laborum commodo in officia id. Nostrud excepteur aliquip magna proident Lorem incididunt.\r\n"
  },
  {
    "id": "/11",
    "text": "Adipisicing velit tempor reprehenderit aute sint qui nostrud dolor incididunt officia laborum magna aute. Esse occaecat ullamco aliquip in occaecat tempor Lorem aliquip sint sunt exercitation commodo. Nostrud est incididunt incididunt id mollit sint elit reprehenderit.\r\n"
  },
  {
    "id": "/12",
    "text": "Id cillum sit irure consequat laboris minim exercitation amet dolor. Sunt et esse ad aute ut mollit culpa amet culpa. Ullamco sunt non ea consequat minim laborum et veniam. Do quis ullamco magna et dolore amet laborum. Nulla deserunt dolore magna veniam adipisicing.\r\n"
  },
  {
    "id": "/13",
    "text": "Nostrud sint ex quis laboris eiusmod Lorem fugiat aute. Dolore deserunt sint nostrud irure pariatur occaecat amet eiusmod eiusmod cupidatat exercitation in veniam ea. Exercitation nisi excepteur dolore minim minim.\r\n"
  },
  {
    "id": "/14",
    "text": "Sint nostrud quis in fugiat velit labore consequat. Veniam minim aliquip adipisicing elit ad amet adipisicing officia excepteur commodo. Dolore dolore consequat exercitation labore officia ut. Fugiat qui excepteur anim esse amet dolor velit. Ex excepteur commodo esse nisi dolor ad Lorem eiusmod sit mollit proident. Mollit excepteur fugiat ullamco magna.\r\n"
  },
  {
    "id": "/15",
    "text": "Irure voluptate culpa exercitation elit irure. Eiusmod officia Lorem ut nulla incididunt proident fugiat ex laborum. Commodo reprehenderit labore minim deserunt Lorem in consequat elit sit fugiat laborum cupidatat excepteur.\r\n"
  },
  {
    "id": "/16",
    "text": "Culpa enim commodo amet duis enim nisi ullamco id in laborum pariatur. Velit sunt Lorem nisi pariatur id. Deserunt aute voluptate consequat proident Lorem tempor proident in Lorem adipisicing nostrud incididunt aliqua excepteur. Ad et ipsum laborum ut non pariatur consequat reprehenderit. Ullamco occaecat proident officia cillum irure ut amet laboris proident esse commodo.\r\n"
  },
  {
    "id": "/17",
    "text": "Ullamco pariatur laboris enim irure Lorem commodo est culpa mollit in sint ut. Id veniam velit aliquip sit duis est. Voluptate enim nulla non et quis tempor amet ullamco. Culpa cillum proident Lorem cillum ex aliquip Lorem consequat minim Lorem sunt elit ullamco. Reprehenderit anim excepteur enim laboris voluptate magna dolore esse laboris ut nostrud est cillum do. Mollit aliquip voluptate ad id adipisicing cupidatat amet veniam ex laborum consequat dolor.\r\n"
  },
  {
    "id": "/18",
    "text": "Proident quis et non labore. Ullamco dolor ex est enim elit sit tempor nostrud sint. Elit commodo nulla ullamco fugiat.\r\n"
  },
  {
    "id": "/19",
    "text": "Pariatur ullamco cillum magna nisi cillum laborum reprehenderit consectetur culpa adipisicing nisi. Esse consequat exercitation consequat non ut tempor incididunt. Excepteur in aliquip exercitation aute aute deserunt sit eiusmod. Deserunt nisi anim dolor ipsum consectetur Lorem do non sit cillum ullamco. Lorem nisi proident mollit sunt ea dolor aliqua excepteur elit.\r\n"
  },
  {
    "id": "/20",
    "text": "Adipisicing ea sunt aliquip aute eiusmod commodo ipsum eu fugiat labore. Elit ut irure cillum incididunt anim laborum non laborum. Velit aliquip voluptate ea qui culpa sint aliquip voluptate proident deserunt et officia laboris Lorem. Sit minim excepteur est cillum veniam fugiat excepteur excepteur. Id elit adipisicing ullamco cillum nostrud reprehenderit. Nulla velit esse magna anim incididunt amet ut aliqua velit deserunt esse id laborum. Exercitation ex do proident adipisicing.\r\n"
  },
  {
    "id": "/21",
    "text": "Consequat nulla do mollit irure sint eu non ullamco aute tempor. Occaecat mollit quis in anim sunt consectetur amet ut in. Aliquip sunt deserunt et ipsum dolor culpa minim eiusmod. Magna ad cillum excepteur minim esse nisi laboris dolor cillum enim dolor occaecat dolor magna. Sunt ut velit aliquip aliquip mollit do ad id. Eiusmod nisi labore sint non. Magna reprehenderit culpa ad quis ut eiusmod dolore.\r\n"
  },
  {
    "id": "/22",
    "text": "Ea adipisicing nostrud consequat veniam nostrud irure laboris aliquip aute commodo esse id occaecat reprehenderit. Laboris esse occaecat aliquip dolore ut enim do Lorem ullamco eiusmod ad do dolore. Qui aliqua culpa adipisicing eu elit officia enim elit consequat non. Commodo tempor esse nisi et. Cupidatat nisi in laborum duis consequat non veniam veniam sunt. Adipisicing sunt culpa aliqua magna do aute sit incididunt est non. Id tempor velit aute occaecat incididunt enim eu do.\r\n"
  },
  {
    "id": "/23",
    "text": "Dolore incididunt quis laboris exercitation ad ullamco tempor laborum pariatur labore commodo. Nisi officia cillum velit incididunt eu sit reprehenderit. Tempor ullamco velit officia sint incididunt in est esse ea mollit. Nostrud qui sit tempor ut esse. Eu veniam enim dolor ipsum adipisicing. Sit excepteur irure eiusmod consequat commodo.\r\n"
  },
  {
    "id": "/24",
    "text": "Id aliqua ad sint labore cillum laborum nostrud deserunt minim minim fugiat Lorem dolor. Nostrud ipsum id commodo irure fugiat irure consectetur. Proident non id dolore fugiat labore mollit.\r\n"
  },
  {
    "id": "/25",
    "text": "Tempor culpa commodo consectetur laboris ipsum est. Sit anim reprehenderit deserunt qui laboris velit reprehenderit amet laboris esse duis nulla in quis. Consectetur quis reprehenderit ea enim veniam ut non. In qui aute anim reprehenderit anim sint consectetur ipsum mollit.\r\n"
  },
  {
    "id": "/26",
    "text": "Laborum exercitation cupidatat ipsum aliqua culpa mollit incididunt in reprehenderit culpa commodo ad. Exercitation et culpa commodo reprehenderit aute velit dolore amet sint. Sit veniam deserunt Lorem tempor Lorem proident officia magna consequat. Quis ea ipsum anim nulla.\r\n"
  },
  {
    "id": "/27",
    "text": "Sunt minim aute do occaecat elit et et elit sit pariatur laborum laborum. Pariatur ullamco minim pariatur fugiat ut tempor eu incididunt excepteur quis consequat irure. Consectetur minim adipisicing magna nulla nostrud anim mollit in duis excepteur velit nostrud non. Irure reprehenderit culpa culpa magna ea voluptate do consequat proident consequat duis. Tempor officia ad enim incididunt. Quis exercitation exercitation mollit eu irure ea ut nostrud ullamco cupidatat consequat qui. Pariatur veniam reprehenderit sit amet nisi nisi.\r\n"
  },
  {
    "id": "/28",
    "text": "Ullamco ullamco aliquip occaecat non fugiat cillum. Veniam veniam exercitation ex anim incididunt labore sit fugiat anim quis. Ad sit officia consectetur ullamco eu ad amet Lorem velit cillum reprehenderit quis. Enim sunt tempor id consequat commodo cupidatat. Dolore est minim aute est incididunt ullamco mollit aute dolor duis reprehenderit. Incididunt minim proident et commodo labore minim.\r\n"
  },
  {
    "id": "/29",
    "text": "Consectetur magna reprehenderit incididunt ex irure enim laborum dolore elit ex adipisicing. Eu officia id eiusmod ut magna aute culpa aliquip ipsum occaecat. Sit quis ullamco nisi duis.\r\n"
  },
  {
    "id": "/30",
    "text": "Deserunt adipisicing cillum consectetur commodo voluptate culpa excepteur aute deserunt aute in proident. Quis anim esse ea consequat aute non nostrud velit voluptate. Sint mollit ex proident excepteur pariatur aliqua enim officia ipsum dolor laborum exercitation ipsum. Duis esse nisi labore do adipisicing aliqua qui cupidatat. Amet reprehenderit officia consectetur nostrud ut exercitation. Cupidatat non ea sint esse ex et ex cupidatat esse.\r\n"
  },
  {
    "id": "/31",
    "text": "Cupidatat elit veniam nostrud laborum do exercitation aute et mollit id. Qui aute id commodo ullamco sint voluptate officia ea fugiat officia officia. Commodo irure duis aliqua quis ut dolor elit commodo sunt veniam aute. Duis aliqua dolor nulla nostrud culpa reprehenderit. Dolor officia ex qui ipsum nostrud consectetur non nisi aliqua labore do sunt. Ipsum commodo velit esse qui officia elit irure anim dolore fugiat. Aliquip veniam velit est esse minim.\r\n"
  },
  {
    "id": "/32",
    "text": "Magna fugiat aliquip minim nostrud adipisicing sint elit fugiat sunt consequat deserunt occaecat. Consequat fugiat occaecat cillum nulla qui. Incididunt id nisi aute proident exercitation enim fugiat velit. Ex officia velit in dolor non minim adipisicing anim aliqua quis quis dolor culpa anim. Anim in reprehenderit irure consectetur voluptate mollit.\r\n"
  },
  {
    "id": "/33",
    "text": "Dolore ut ullamco fugiat reprehenderit do culpa pariatur elit officia aliquip. Enim consectetur aliqua qui sint officia proident proident velit tempor laboris occaecat excepteur mollit velit. Ut ut Lorem laboris et sunt Lorem veniam ad laboris Lorem in quis elit proident. Duis veniam commodo duis ipsum ea nostrud est elit. Id culpa ipsum pariatur amet ullamco ipsum non non pariatur aliqua aliqua. Veniam Lorem est esse irure enim. Lorem exercitation Lorem ullamco elit anim.\r\n"
  },
  {
    "id": "/34",
    "text": "Reprehenderit voluptate in pariatur nulla labore voluptate pariatur proident consequat exercitation nisi sunt quis. Sint dolor reprehenderit deserunt tempor esse cillum veniam ex dolor eu voluptate elit proident eiusmod. Officia quis excepteur ullamco fugiat voluptate laborum consequat qui magna est sunt. Reprehenderit non laboris adipisicing duis.\r\n"
  },
  {
    "id": "/35",
    "text": "Proident labore occaecat elit minim. Magna tempor sunt minim do dolore pariatur reprehenderit sint laboris ad tempor laboris aliquip laboris. Labore est velit in consectetur ad laborum anim adipisicing duis.\r\n"
  },
  {
    "id": "/36",
    "text": "Incididunt id id duis est aliqua velit. Do sit aliquip in aliquip. Anim anim aliqua cupidatat dolore veniam tempor excepteur in ea proident. Laborum culpa sit aliquip enim.\r\n"
  },
  {
    "id": "/37",
    "text": "Occaecat minim nisi irure sunt voluptate est in. Occaecat sit cupidatat eiusmod labore esse laborum excepteur. Eiusmod incididunt est Lorem id labore minim. In ullamco laborum minim labore cupidatat aliqua velit tempor magna aliquip. Enim sunt nostrud ipsum irure.\r\n"
  },
  {
    "id": "/38",
    "text": "Magna velit laborum eiusmod laborum cupidatat anim enim sint incididunt. Ipsum est anim eu laboris duis veniam Lorem in dolore culpa commodo laborum esse magna. Laborum occaecat esse labore veniam. Officia aute labore velit culpa consequat culpa aliquip aliquip. Eiusmod consectetur ad ea ullamco ea nisi anim enim. Occaecat est magna reprehenderit aute exercitation.\r\n"
  },
  {
    "id": "/39",
    "text": "Sunt nisi ipsum ullamco nisi fugiat reprehenderit. Voluptate consequat veniam nulla ullamco culpa ipsum nulla esse minim. Laborum incididunt et cillum adipisicing consequat veniam magna est ullamco sunt sunt laborum ipsum. Deserunt elit irure cupidatat non consectetur.\r\n"
  },
  {
    "id": "/40",
    "text": "Ut deserunt id do enim aute laborum aute nostrud fugiat occaecat. Nisi dolor veniam mollit est qui officia eiusmod excepteur elit ex quis labore Lorem. Fugiat pariatur aliqua tempor excepteur elit non sunt dolore sunt adipisicing dolore aliquip. Labore pariatur exercitation culpa qui duis.\r\n"
  },
  {
    "id": "/41",
    "text": "Aute culpa ex cillum ipsum in et eu eiusmod amet fugiat dolore. Excepteur occaecat non velit ea deserunt nostrud laboris dolor. Duis nostrud esse nostrud voluptate ipsum magna mollit magna fugiat veniam.\r\n"
  },
  {
    "id": "/42",
    "text": "Ipsum sint eu tempor nisi exercitation ea non. Culpa aute et eiusmod duis fugiat irure et dolor dolor. Elit incididunt esse sint incididunt amet anim laborum.\r\n"
  },
  {
    "id": "/43",
    "text": "Cillum non occaecat nulla in aute magna est dolor amet. Fugiat ex tempor proident sint cupidatat Lorem exercitation ex aute consequat consequat incididunt. Ex mollit fugiat incididunt est qui. Fugiat qui irure officia sunt nisi do occaecat anim voluptate magna exercitation commodo magna adipisicing. Proident amet esse officia ex pariatur anim eu sit. Ad reprehenderit consectetur quis cillum qui fugiat dolor sit velit dolore occaecat adipisicing sunt.\r\n"
  },
  {
    "id": "/44",
    "text": "Nulla laboris excepteur ex dolor qui labore dolor nulla fugiat dolor reprehenderit cillum proident incididunt. Minim deserunt ea ad voluptate Lorem. Ea magna Lorem elit amet cillum tempor occaecat. Officia aliqua nostrud sint et irure proident dolore velit id eiusmod sit tempor adipisicing pariatur. Incididunt non ut dolore ea dolore irure.\r\n"
  },
  {
    "id": "/45",
    "text": "Proident tempor nisi duis non qui aliqua cupidatat exercitation. Est ullamco eu reprehenderit duis aute adipisicing laboris mollit et ea cillum exercitation. Cillum ex nisi in voluptate esse pariatur do et laborum exercitation nostrud. Eu aute id eiusmod culpa fugiat amet eu aliqua nostrud nulla in id ea. Aliqua excepteur ad et eu nulla laboris quis. Aliqua cillum anim elit cupidatat elit tempor magna nostrud. Ipsum velit ex eu aliqua laboris ea sint laboris et excepteur nisi veniam velit.\r\n"
  },
  {
    "id": "/46",
    "text": "Nulla deserunt ut qui dolore mollit aliquip elit nisi nulla irure magna non. Consequat irure irure sint ipsum fugiat nulla tempor consequat dolor sint mollit aliqua. Commodo quis quis tempor esse voluptate sit id non amet veniam aute. Mollit duis voluptate elit officia qui officia irure amet consequat magna aliquip dolore.\r\n"
  },
  {
    "id": "/47",
    "text": "Aliqua occaecat pariatur consequat sunt aliqua id anim velit velit aliqua. Pariatur sit id est Lorem eu exercitation qui incididunt aliquip consequat Lorem consectetur. Sint est velit ut cillum magna culpa consequat dolor in voluptate est adipisicing consequat. Culpa excepteur dolore ex magna pariatur veniam reprehenderit aute nulla commodo anim. Eu esse reprehenderit voluptate eu est in. Et pariatur deserunt aute quis qui quis sunt enim sunt ullamco in qui. Qui mollit aliquip commodo mollit laboris in nostrud ut mollit commodo.\r\n"
  },
  {
    "id": "/48",
    "text": "Velit sit excepteur pariatur enim nostrud Lorem sint occaecat Lorem laboris non. Consequat occaecat eiusmod labore cillum cupidatat proident dolore esse sunt adipisicing. Commodo et excepteur proident labore deserunt duis occaecat. Ullamco ad aliqua reprehenderit aliquip consequat. Reprehenderit consequat sit ipsum pariatur. Reprehenderit magna nisi minim nisi. Tempor labore non laborum exercitation reprehenderit in adipisicing sunt fugiat.\r\n"
  },
  {
    "id": "/49",
    "text": "Quis cillum magna voluptate ex Lorem sint non veniam esse voluptate mollit. Lorem aliqua culpa elit nulla consequat magna. Aute aute ullamco veniam tempor nostrud eiusmod cupidatat ex ullamco aliqua dolor mollit dolor in. Minim Lorem et velit mollit fugiat. Labore elit adipisicing cupidatat non aliqua laborum esse nostrud adipisicing sit sint.\r\n"
  },
  {
    "id": "/50",
    "text": "Minim anim voluptate quis ad cillum aliqua reprehenderit dolor. Ut nulla fugiat nostrud occaecat. Veniam eu cillum esse voluptate esse dolore enim id esse. Labore in amet duis sunt. Aliquip eiusmod laborum veniam voluptate non nulla.\r\n"
  },
  {
    "id": "/51",
    "text": "Nostrud qui reprehenderit et irure est consequat elit eiusmod deserunt nisi laborum excepteur est. Consequat commodo elit et proident elit in dolor Lorem sit commodo sint. Dolor proident elit officia quis irure sint culpa esse adipisicing quis veniam nisi labore. Et reprehenderit sunt labore velit mollit do cillum consectetur elit dolore occaecat consectetur. Consectetur eiusmod excepteur aliqua dolore sunt esse aute nulla qui proident duis aliqua.\r\n"
  },
  {
    "id": "/52",
    "text": "Pariatur excepteur ea id elit sit sunt aliquip deserunt nulla elit est dolor Lorem excepteur. Ea culpa non et sunt. Consectetur Lorem minim quis cillum qui eiusmod sunt sint. Velit ea non pariatur do amet amet. Velit quis pariatur id ut aliqua aute aute ad laboris.\r\n"
  },
  {
    "id": "/53",
    "text": "Amet ullamco elit Lorem aliquip adipisicing adipisicing proident consequat deserunt deserunt ipsum sit exercitation. Reprehenderit non dolor id duis eiusmod. Quis ex ex ipsum aute nisi tempor velit sint. Quis sint enim qui ex labore nisi consectetur officia voluptate fugiat excepteur ut. Do reprehenderit dolor minim enim eu consectetur dolor nulla sit reprehenderit duis mollit occaecat. Magna ut et mollit amet pariatur ex aute dolore mollit.\r\n"
  },
  {
    "id": "/54",
    "text": "Deserunt enim Lorem id est. Lorem ad ipsum aliqua ipsum exercitation irure consectetur sint. Sit non do exercitation dolore sunt quis laboris dolore ex laboris. Ipsum non exercitation ipsum deserunt labore amet est aliquip do minim aliqua. Minim adipisicing duis nostrud ipsum ea fugiat Lorem aliquip proident amet consequat duis. Quis sunt cupidatat mollit et cupidatat eu ut duis tempor ipsum ipsum. Voluptate elit reprehenderit ea cillum.\r\n"
  },
  {
    "id": "/55",
    "text": "Mollit amet voluptate minim aliquip fugiat aliqua excepteur magna id pariatur. Magna laboris ut culpa aliquip amet. Minim magna commodo laboris reprehenderit veniam tempor aute nulla laborum ea aute. Eiusmod commodo qui ad ea nisi nisi nostrud elit velit tempor dolore elit. Commodo ullamco ex consectetur eu laboris commodo. Tempor nostrud dolore consequat occaecat adipisicing non fugiat.\r\n"
  },
  {
    "id": "/56",
    "text": "Elit ad magna elit nisi nisi nostrud consequat laboris. Magna ipsum id consequat dolor ad elit deserunt consequat in incididunt occaecat eu consequat nisi. Occaecat occaecat esse quis aliqua proident exercitation in nulla. Non aute amet ea tempor occaecat. Consequat tempor ea excepteur culpa. Ut consequat Lorem voluptate cupidatat irure magna. Labore et veniam non aliqua ullamco elit officia.\r\n"
  },
  {
    "id": "/57",
    "text": "Esse aute duis sint eu cillum in reprehenderit ullamco magna eu. Ex sunt eiusmod enim sint tempor culpa sit aute anim dolor sint. Fugiat ullamco ex adipisicing sunt ullamco adipisicing aliqua nisi do nostrud deserunt esse. Dolore eiusmod officia elit deserunt aliqua.\r\n"
  },
  {
    "id": "/58",
    "text": "Incididunt exercitation labore voluptate eiusmod ullamco duis ad id excepteur. Nostrud minim in sint Lorem. Labore minim commodo in elit proident ipsum. Eu nulla enim labore pariatur et. Amet esse dolor ut esse culpa adipisicing est adipisicing fugiat excepteur.\r\n"
  },
  {
    "id": "/59",
    "text": "Aliquip fugiat ullamco aliquip nisi veniam mollit elit excepteur dolor. Exercitation commodo deserunt laboris ullamco occaecat consectetur ipsum ad. Nulla culpa consequat pariatur proident pariatur pariatur aliquip quis sunt est quis.\r\n"
  },
  {
    "id": "/60",
    "text": "Labore ipsum excepteur ea ea excepteur ea cillum Lorem consequat ea. Officia quis consequat laborum ut veniam ipsum adipisicing voluptate ullamco id magna aliquip sunt sint. Non consectetur commodo nisi eu cillum ipsum nostrud anim esse irure exercitation deserunt. Amet ipsum sit pariatur Lorem eu est nisi consectetur. Tempor deserunt ullamco nostrud ad sint proident deserunt veniam in.\r\n"
  },
  {
    "id": "/61",
    "text": "Duis ullamco sit anim adipisicing quis pariatur aliquip aliquip qui proident. Qui culpa irure officia irure ad. Proident sint ex quis consequat cupidatat est aliquip officia do sit aliqua est aliquip commodo. Do et consectetur fugiat ipsum et mollit deserunt.\r\n"
  },
  {
    "id": "/62",
    "text": "Eiusmod veniam aute mollit consectetur ullamco exercitation cupidatat anim nulla sint id veniam. Ea veniam ut adipisicing esse et mollit sunt reprehenderit cupidatat. Consectetur aliqua in est laboris labore commodo duis pariatur. In proident magna voluptate nulla quis consequat qui non cillum adipisicing esse in ipsum irure. Pariatur id in voluptate nulla mollit sint mollit magna.\r\n"
  },
  {
    "id": "/63",
    "text": "Nostrud aliquip consectetur commodo aliquip id velit. Fugiat adipisicing ad fugiat sint irure et velit nulla consequat incididunt do consectetur. Proident fugiat dolor esse officia. Mollit Lorem consequat ut eiusmod ut officia nostrud laboris id ipsum duis fugiat. Velit aliqua esse do labore nulla fugiat dolor non proident esse adipisicing officia anim laborum.\r\n"
  },
  {
    "id": "/64",
    "text": "Incididunt elit aute pariatur proident ipsum incididunt consectetur laboris esse eu magna exercitation excepteur. Ullamco amet esse cupidatat irure eiusmod eiusmod eiusmod irure nostrud ullamco. Veniam quis minim dolor veniam nisi sint esse dolor commodo sunt ullamco.\r\n"
  },
  {
    "id": "/65",
    "text": "Lorem enim quis laboris sint ad id minim duis adipisicing sit. Sunt ullamco id minim ex incididunt consectetur anim ipsum sit magna nisi excepteur do officia. Duis eu non occaecat proident consectetur est ex sunt minim ut. Nisi aute nostrud id voluptate. Velit minim non voluptate fugiat sit ullamco quis minim cillum aute pariatur.\r\n"
  },
  {
    "id": "/66",
    "text": "Sit aliquip dolor ea pariatur in laboris sunt aliqua laborum. Reprehenderit nisi occaecat sit incididunt culpa voluptate aliquip ad occaecat amet qui officia esse. Exercitation adipisicing veniam pariatur ut occaecat occaecat velit ipsum id in occaecat anim deserunt aute.\r\n"
  },
  {
    "id": "/67",
    "text": "Aliquip tempor pariatur velit amet enim reprehenderit aute est exercitation. Do reprehenderit et occaecat eiusmod officia fugiat sit consectetur fugiat Lorem est nostrud voluptate nulla. Cupidatat ipsum esse anim in aliqua. Nostrud labore aliquip esse est ea qui dolor voluptate id et. Ut ipsum amet eiusmod quis et. Deserunt minim anim aliquip est culpa quis fugiat aliqua ut id irure.\r\n"
  },
  {
    "id": "/68",
    "text": "Esse eiusmod sunt ex anim labore eiusmod. Ut elit ut excepteur tempor sunt enim exercitation. Consequat qui ullamco ipsum irure do ipsum velit cillum do adipisicing adipisicing excepteur. Commodo commodo aliquip occaecat voluptate. Officia adipisicing incididunt ipsum laborum. Velit nulla ipsum nulla culpa dolore do tempor magna eiusmod ea ut laboris. Nulla duis nostrud occaecat elit nisi.\r\n"
  },
  {
    "id": "/69",
    "text": "Nulla magna magna aliqua minim. Ut incididunt tempor eiusmod ut. Magna consectetur ad cillum nostrud est. Pariatur tempor magna eiusmod enim eiusmod occaecat sunt reprehenderit ea aute. Dolor elit elit duis qui veniam.\r\n"
  },
  {
    "id": "/70",
    "text": "Duis non magna aliquip consequat incididunt occaecat cillum incididunt culpa anim laborum adipisicing proident. Nostrud cillum id sint incididunt voluptate Lorem duis reprehenderit aliquip dolor non magna. Nostrud dolor non cupidatat elit id consectetur sunt Lorem ad qui eu incididunt. Consequat ullamco laboris commodo ex incididunt fugiat do consequat. Ex id consequat ut nostrud eu officia eiusmod qui ullamco. Aliqua nisi incididunt esse occaecat.\r\n"
  },
  {
    "id": "/71",
    "text": "Labore est officia magna dolor consectetur aliqua sint sit voluptate reprehenderit cillum veniam. Enim ad magna cupidatat veniam nulla. Fugiat quis qui magna ut nostrud tempor minim laboris nulla ex anim aute. Laboris cupidatat minim laborum non Lorem pariatur sit eu aliqua ex quis aliquip ex ut. Nisi mollit sint quis pariatur sit. Eiusmod consectetur non minim esse voluptate in laboris officia laborum sunt.\r\n"
  },
  {
    "id": "/72",
    "text": "Occaecat pariatur exercitation officia incididunt. Tempor Lorem aute labore dolor sit consectetur et fugiat. Duis quis non culpa dolor et ea enim sunt cillum consequat commodo irure.\r\n"
  },
  {
    "id": "/73",
    "text": "Do irure reprehenderit labore anim reprehenderit do dolore excepteur esse culpa ullamco ea. Esse ut magna occaecat mollit id ipsum esse consectetur excepteur aliqua commodo nulla elit labore. Aute qui ipsum irure consectetur enim Lorem culpa veniam labore adipisicing elit do dolor.\r\n"
  },
  {
    "id": "/74",
    "text": "Anim exercitation esse consequat nisi velit aliquip laboris cillum minim sunt mollit aute. Enim quis anim enim ut. Nulla ullamco exercitation qui duis cillum magna excepteur ullamco ut tempor.\r\n"
  },
  {
    "id": "/75",
    "text": "Est consequat pariatur reprehenderit quis in consectetur consectetur veniam veniam eu. In proident commodo ut elit esse sunt est cillum tempor sint laborum. Id labore elit amet labore adipisicing et nisi irure.\r\n"
  },
  {
    "id": "/76",
    "text": "Ex mollit proident cupidatat nisi nostrud cupidatat. Qui consectetur officia eu duis ad. Laboris veniam excepteur reprehenderit Lorem ex occaecat ad. Incididunt dolore nostrud exercitation non. Qui cupidatat tempor reprehenderit eu esse non ex. Excepteur cupidatat occaecat officia tempor Lorem proident eu excepteur dolor.\r\n"
  },
  {
    "id": "/77",
    "text": "Lorem deserunt exercitation veniam eu amet deserunt. Nisi mollit et elit cupidatat laboris qui proident excepteur ex. Occaecat nostrud exercitation non amet esse. Culpa labore veniam cupidatat eiusmod excepteur proident nulla pariatur commodo. Exercitation consequat culpa in enim dolor labore pariatur minim eu fugiat in. Ex do ad ipsum proident nulla amet est velit consectetur irure. Labore exercitation fugiat commodo sit minim sint proident amet.\r\n"
  },
  {
    "id": "/78",
    "text": "Qui qui dolore tempor cupidatat commodo fugiat duis nulla eu ea ullamco officia duis. Ullamco cillum mollit nisi duis cillum officia voluptate enim. Veniam ea cupidatat ut sint consequat elit.\r\n"
  },
  {
    "id": "/79",
    "text": "Officia cillum quis magna elit anim excepteur minim elit id mollit dolore. Consequat elit eu minim non ea quis ad culpa dolore incididunt sit reprehenderit non elit. Culpa quis ea eu aute ad id. Sint consequat culpa reprehenderit mollit pariatur ipsum velit ad nulla consequat occaecat deserunt.\r\n"
  },
  {
    "id": "/80",
    "text": "Tempor do sit cupidatat nulla nisi enim laboris non pariatur. Pariatur ullamco anim consectetur nostrud Lorem ex deserunt nisi veniam occaecat ad magna minim ex. Qui est enim fugiat ipsum mollit amet in quis consectetur sit magna pariatur sint. Duis fugiat nisi magna mollit aliqua ipsum duis id elit labore excepteur commodo culpa. Exercitation anim mollit laborum duis amet aute tempor cupidatat ipsum labore sit culpa irure. Ex cupidatat amet voluptate tempor nostrud officia.\r\n"
  },
  {
    "id": "/81",
    "text": "Ad nostrud eu reprehenderit incididunt quis tempor cillum culpa. Aliquip nulla duis ex id ea dolor do laboris ipsum labore sunt amet. Et do cillum dolore fugiat laborum ea nulla excepteur ea tempor enim cupidatat. Deserunt pariatur fugiat voluptate excepteur pariatur aliquip elit fugiat ad laboris anim commodo sunt. Velit tempor cupidatat veniam quis velit eiusmod ex pariatur nostrud minim consequat do sunt.\r\n"
  },
  {
    "id": "/82",
    "text": "Dolore ea id anim veniam cillum reprehenderit duis. Et esse mollit Lorem reprehenderit do in nostrud voluptate. Labore sunt anim enim ut do dolor qui deserunt culpa commodo incididunt anim ea. Nostrud magna eu tempor officia exercitation commodo sint.\r\n"
  },
  {
    "id": "/83",
    "text": "Irure excepteur sit do quis do ullamco nostrud commodo. Magna aliqua non enim fugiat laborum mollit id aliqua commodo nisi dolore. Nostrud incididunt cillum aute id mollit nostrud do consequat eu consequat eiusmod amet. Do aute aliquip quis pariatur in ea tempor veniam cillum Lorem eiusmod occaecat anim anim.\r\n"
  },
  {
    "id": "/84",
    "text": "Non sint dolore et commodo et cupidatat anim quis. Labore deserunt nisi duis magna nulla id duis consectetur deserunt ullamco voluptate veniam dolor incididunt. Consequat pariatur nisi cupidatat ut. Et aute est eiusmod ex. Laborum aliqua minim do do anim ut culpa esse nostrud eiusmod mollit. In elit amet ea culpa qui culpa dolore irure cupidatat pariatur nostrud.\r\n"
  },
  {
    "id": "/85",
    "text": "Laboris anim elit labore quis ad sunt qui ea cillum qui proident esse aute dolore. Quis cillum sunt ex consequat qui pariatur do ad adipisicing reprehenderit. Est sunt ullamco ipsum Lorem qui eu do ex exercitation. Qui aute occaecat mollit exercitation incididunt deserunt voluptate aliqua nulla laboris qui. Elit nulla cupidatat adipisicing pariatur aliquip in duis nulla adipisicing culpa et. Cillum et qui ad exercitation laboris ad aliqua eu eu.\r\n"
  },
  {
    "id": "/86",
    "text": "Veniam sint sunt tempor quis mollit occaecat nostrud minim. Minim id adipisicing eiusmod irure eu labore consectetur ex aute est laboris eu mollit. Mollit eu ipsum dolor aliquip labore labore in est et sunt culpa. Consectetur ipsum incididunt ullamco culpa. Non ad non veniam enim nulla ullamco ut dolor qui minim fugiat. Excepteur voluptate irure eu minim mollit.\r\n"
  },
  {
    "id": "/87",
    "text": "Cupidatat magna aliquip consectetur mollit magna reprehenderit in reprehenderit. Minim esse aute sit fugiat dolore reprehenderit in eu pariatur exercitation. Nostrud voluptate tempor eu officia consectetur laborum aute ullamco anim Lorem tempor veniam veniam. Ipsum nulla officia duis sint consectetur sit labore esse duis.\r\n"
  },
  {
    "id": "/88",
    "text": "Elit mollit occaecat occaecat sit ex adipisicing. Sint cillum elit esse velit qui sunt ullamco veniam ut incididunt. Excepteur est nostrud id Lorem amet excepteur ut. Sint proident velit consectetur enim id eu irure duis esse qui. Nulla anim reprehenderit nulla voluptate deserunt officia exercitation. Amet ipsum eiusmod laborum esse voluptate esse culpa. Cupidatat id dolore reprehenderit aute laborum exercitation sunt magna do culpa quis nisi.\r\n"
  },
  {
    "id": "/89",
    "text": "Dolore do voluptate amet veniam exercitation sunt aliquip duis aliquip officia cupidatat commodo est anim. Fugiat do nisi in Lorem dolor non minim officia ut mollit eu adipisicing. Nulla ut aliquip irure sint. Do esse magna occaecat cillum eiusmod amet occaecat cillum magna laborum labore eiusmod ad. Id duis incididunt elit incididunt amet ullamco commodo ex aliqua. Velit tempor do dolore qui consequat tempor.\r\n"
  },
  {
    "id": "/90",
    "text": "Id commodo qui elit occaecat irure officia eiusmod consequat est velit do amet velit sunt. Sit commodo commodo deserunt pariatur excepteur aliquip deserunt non reprehenderit aliqua. Anim aliquip do aliquip excepteur Lorem aute Lorem veniam dolor culpa in sunt ad proident. Commodo dolore anim voluptate tempor commodo occaecat velit veniam Lorem excepteur cupidatat reprehenderit dolor est. Voluptate sunt velit tempor veniam consequat. Quis laboris id qui cillum et nulla sunt officia mollit Lorem proident laboris ut. Incididunt aute reprehenderit sint excepteur ullamco anim pariatur exercitation nisi qui.\r\n"
  },
  {
    "id": "/91",
    "text": "Consectetur id et excepteur amet consectetur duis elit aute commodo eiusmod duis occaecat consequat. Eiusmod eiusmod fugiat proident ex. Magna incididunt labore exercitation ipsum dolor ipsum est. Aliquip deserunt reprehenderit voluptate in esse officia mollit eu cillum ipsum minim. Occaecat aute culpa fugiat culpa nostrud ad ex tempor. Consectetur nostrud ex amet Lorem proident cupidatat culpa veniam eu. Velit dolore deserunt minim aute sint.\r\n"
  },
  {
    "id": "/92",
    "text": "Qui labore irure officia et est dolor irure laborum in ullamco veniam id. Duis est irure voluptate culpa occaecat qui ut. Qui et ad laborum anim consequat cupidatat nisi exercitation non dolor. Irure ullamco cillum magna ad anim officia mollit duis ut eiusmod sint ipsum. Eiusmod ad occaecat eiusmod consectetur duis non laboris ea nostrud.\r\n"
  },
  {
    "id": "/93",
    "text": "Ullamco sunt anim ullamco cupidatat consectetur nisi amet reprehenderit nostrud adipisicing culpa esse. Quis Lorem commodo magna incididunt cillum duis qui pariatur nostrud laboris dolore. In aute nulla quis elit tempor occaecat consequat. Pariatur velit eu sunt in. Amet labore est amet qui laboris mollit officia culpa laboris exercitation. Voluptate qui excepteur ullamco elit irure deserunt consequat amet et eiusmod exercitation tempor sit.\r\n"
  },
  {
    "id": "/94",
    "text": "Aute cillum sit aliqua fugiat qui veniam laborum ea eiusmod enim Lorem amet non cupidatat. Ipsum aliqua esse nostrud amet ipsum aliqua officia voluptate ipsum consectetur qui est cillum. Minim laboris cillum reprehenderit excepteur et voluptate elit sint. Consequat fugiat reprehenderit non commodo Lorem.\r\n"
  },
  {
    "id": "/95",
    "text": "Tempor sunt cupidatat irure irure reprehenderit officia velit adipisicing. Minim labore laboris quis sint adipisicing. Ullamco qui do nisi in. Sint amet excepteur occaecat et magna non velit irure.\r\n"
  },
  {
    "id": "/96",
    "text": "Amet cupidatat nostrud do laborum eu non laborum aute laboris commodo occaecat cupidatat ad. Mollit ut ex aute laborum aute et aliquip officia velit tempor. Dolor veniam cupidatat fugiat nostrud amet minim duis nostrud magna. Sint nulla est voluptate nisi incididunt cillum minim commodo fugiat proident irure. Amet cupidatat in reprehenderit commodo excepteur in non deserunt qui.\r\n"
  },
  {
    "id": "/97",
    "text": "Non ullamco sint ad labore id veniam sunt incididunt in exercitation eu incididunt ut amet. Occaecat anim nostrud elit nostrud velit nostrud aliquip. Culpa reprehenderit est duis aliqua voluptate sunt ipsum non minim fugiat. Mollit in in aute dolor do voluptate ex irure dolor ipsum aute. Mollit exercitation cupidatat est sit excepteur voluptate laboris fugiat sunt cillum magna. Cillum irure cupidatat sunt ipsum irure sit excepteur anim aute velit voluptate.\r\n"
  },
  {
    "id": "/98",
    "text": "Ipsum minim laborum quis qui sint mollit ad. Cillum tempor reprehenderit anim eiusmod consectetur reprehenderit tempor dolor reprehenderit eiusmod id ex nostrud. In magna cupidatat mollit occaecat nostrud reprehenderit aliquip duis. Minim velit ipsum culpa exercitation. Sint aute sunt ad in laborum eu qui culpa culpa mollit consequat anim. Eu commodo aliquip eiusmod tempor ad voluptate eiusmod esse laboris nulla duis ullamco ullamco. Mollit nulla eiusmod duis eiusmod sit enim consectetur quis in elit non ea.\r\n"
  },
  {
    "id": "/99",
    "text": "Commodo exercitation qui Lorem labore consequat dolore ipsum consequat tempor aute labore eu laborum deserunt. Cillum voluptate nulla sit cupidatat consectetur pariatur laboris dolore laboris ullamco. Enim consectetur ex adipisicing commodo consequat nisi aliqua veniam sit proident. Labore sint minim ipsum non velit deserunt exercitation aliqua anim. Ad ex in et consequat sit dolor.\r\n"
  }
]
